time,d1,d2
1,20,99
2,99,27
3,96,53
4,39,86
5,91,18
6,87,39
7,63,22
8,85,55
9,,
,,
time,d1,d2
1.1,59,12
1.2,40,43
1.3,81,35
1.4,14,40
1.5,75,91
1.6,65,78
1.7,54,50
1.8,38,75
1.9,80,24
2,46,31
2.1,37,95
2.2,75,26
2.3,89,32
2.4,96,48
2.5,97,59
2.6,30,38
2.7,96,94
2.8,45,66
2.9,64,48
3,52,26
3.1,69,62
3.2,74,10
3.3,61,95
3.4,68,61
3.5,48,46
3.6,10,14
3.7,65,25
3.8,43,80
3.9,42,52
4,94,64
4.1,49,60
4.2,46,14
4.3,94,58
4.4,40,43
4.5,88,14
4.6,70,40
4.7,38,42
4.8,57,99
4.9,41,68
5,97,41
5.1,72,23
5.2,30,81
5.3,33,38
5.4,84,75
5.5,32,23
5.6,52,36
5.7,92,44
5.8,71,33
5.9,84,21
6,95,98
6.1,58,99
6.2,38,54
6.3,63,91
6.4,63,43
6.5,39,99
6.6,92,90
6.7,83,70
6.8,44,56
6.9,11,56
7,21,39
7.1,35,39
7.2,77,72
7.3,75,42
7.4,30,77
7.5,98,74
7.6,40,62
7.7,10,60
7.8,92,61
7.9,69,22
8,14,82
8.1,66,92
8.2,50,62
8.3,15,63
8.4,21,87
8.5,28,17
8.6,21,40
8.7,91,51
8.8,66,37
8.9,14,45
9,54,57
9.1,96,48